{"success":true,"data":{"products":[{"id":47741,"name":"Sport Ball Stars Spinner","description":"This trophy is not only fun to look at, but a unique piece to add to the rest of them!\u00A0Unique design sports spinner figure is surrounded by gold stars and mounted on white marble base.\u00A09\" in height.","price":8.95,"salePrice":null,"imageUrl":"http://printoscar.com/wp-content/uploads/2024/12/Theballspins_7432c94c-b12e-4418-b780-91ebfaeb619a_1024x.png","categoryName":"Trophy","categoryConfigurationType":"Regular","hasActiveConfigurations":true,"isActive":true,"isFeatured":false,"stock":100,"slug":"sport-ball-stars-spinner"},{"id":47742,"name":"Spinning Squeeze Sports Ball Trophy","description":"The Full Color soft-touch Mini Sport Ball is Spinnable, Squeezable and Removable for added fun. Add color and fun to your presentation with this NEW Product! Gold-tone personalization plate is applied to solid \"real\" marble base.\r\n\\n6.5 inches in height.","price":8.95,"salePrice":null,"imageUrl":"http://printoscar.com/wp-content/uploads/2024/12/IMG_6931_897376a9-1272-4b95-a556-c304379b0d1d.png","categoryName":"Trophy","categoryConfigurationType":"Regular","hasActiveConfigurations":true,"isActive":true,"isFeatured":false,"stock":100,"slug":"spinning-squeeze-sports-ball-trophy"},{"id":47743,"name":"Commemorative Softball Display Award","description":"Commemorative Softball Display Award. 5 inches. GREAT Coaches' gift. Collect and display the actual ball from that special game, play, or season. Document your memory on supplied gold tone plate affixed to the solid marble base. Ball not included.","price":12.75,"salePrice":null,"imageUrl":"http://printoscar.com/wp-content/uploads/2024/12/ProductDetailImageGenerator_4b0a4348-0a58-4f6f-9af3-10726fde7bba_1024x.png","categoryName":"Trophy","categoryConfigurationType":"Regular","hasActiveConfigurations":false,"isActive":true,"isFeatured":false,"stock":100,"slug":"commemorative-softball-display-award"},{"id":47744,"name":"Soccer Ball Replica Sport Ball Award","description":"Soccer Ball - Gold Metallized Replica Sport Ball. This \"Official-Size\" replica is displayed on a walnut base. A Great Team or Individual Award! The engraving plate is supplied and marked to acknowledge your top performers!","price":250.00,"salePrice":null,"imageUrl":"http://printoscar.com/wp-content/uploads/2024/12/SilverSoccerball_3bde6df8-b4d3-4bfb-ad54-df6dd133d183_1024x.png","categoryName":"Trophy","categoryConfigurationType":"Regular","hasActiveConfigurations":false,"isActive":true,"isFeatured":false,"stock":100,"slug":"soccer-ball-replica-sport-ball-award"},{"id":47745,"name":"Football Replica Sport Ball Award","description":"Football - Gold Metallized Replica Sport Ball. This \"Official-Size\", 15\" replica is displayed on a walnut base. A Great Team or Individual Award! The engraving plate is supplied and marked to acknowledge your top performers!","price":250.00,"salePrice":null,"imageUrl":"http://printoscar.com/wp-content/uploads/2024/12/ProductDetailImageGenerator_8_f12847a9-25cd-41da-a0e9-9e807e94b4e5_1024x.png","categoryName":"Trophy","categoryConfigurationType":"Regular","hasActiveConfigurations":false,"isActive":true,"isFeatured":false,"stock":100,"slug":"football-replica-sport-ball-award"},{"id":47746,"name":"FULL COLOR FOOTBALL","description":"Size 14","price":184.00,"salePrice":null,"imageUrl":"http://printoscar.com/wp-content/uploads/2024/12/TBSB-0102_502b5d45-e92e-488d-859d-2d5cfcadd45c_1024x.png","categoryName":"Football Awards","categoryConfigurationType":"Regular","hasActiveConfigurations":false,"isActive":true,"isFeatured":false,"stock":100,"slug":"full-color-football"},{"id":47747,"name":"Full Color Volleyball","description":"Replica Sport Full Color Volleyball. This Full Color enamel-finished \"Official-Size\" replica is displayed on a black marbleized base. A Great Team or Individual Award! Black and gold engraving plate supplied for engraved personalization.","price":165.00,"salePrice":null,"imageUrl":"http://printoscar.com/wp-content/uploads/2024/12/TBSB-0104_4f301be4-e52a-4c6e-8f0b-b0f8eb71195d_1024x.png","categoryName":"Trophy","categoryConfigurationType":"Regular","hasActiveConfigurations":false,"isActive":true,"isFeatured":false,"stock":100,"slug":"full-color-volleyball"},{"id":47748,"name":"Diamond Figure Trophy","description":"Quantity Based Discounts\r\n\\n\r\n\\n\r\n\\n\r\n\\nBuy quantity\r\n\\nDiscount\r\n\\n\r\n\\n\r\n\\n\r\n\\n\r\n\\nBuy 10 - 49\r\n\\nGet 5% off\r\n\\n\r\n\\n\r\n\\nBuy 50 - 99\r\n\\nGet 10% off\r\n\\n\r\n\\n\r\n\\nBuy 100 - 249\r\n\\nGet 15% off\r\n\\n\r\n\\n\r\n\\nBuy 250+\r\n\\nGet 20% off\r\n\\n\r\n\\n\r\n\\n\r\n\\n\u00A0\r\n\\n\r\n\\nBright gold diamond figure trophy. Customize the plate for your special event in the center of the star-laden figure. Lettering on base available.","price":13.25,"salePrice":null,"imageUrl":"http://printoscar.com/wp-content/uploads/2024/12/Diamond-Figure-Trophy.png","categoryName":"Trophy","categoryConfigurationType":"Regular","hasActiveConfigurations":false,"isActive":true,"isFeatured":false,"stock":100,"slug":"diamond-figure-trophy"},{"id":47749,"name":"Premier Glass Basketball","description":"\\n\r\n\\n\r\n\\n\r\n\\n\r\n\\n\r\n\\n\r\n\\n\r\n\\n\r\n\\n\r\n\\n\r\n\\n\r\n\\n\r\n\\n\r\n\\n\r\n\\nThis \"Official-Size\" premier glass basketball is displayed on a solid marble base. A Great Team or Individual Award! The engraving plate is supplied and marked to acknowledge your top performers!\r\n\\n\r\n\\n\r\n\\n\r\n\\n\r\n\\n\r\n\\n\r\n\\n\r\n\\n\r\n\\n\r\n\\n\r\n\\n\r\n\\n\r\n\\n\r\n\\n\r\n\\n","price":200.00,"salePrice":null,"imageUrl":"http://printoscar.com/wp-content/uploads/2024/12/GlassBasketball_9338a043-d877-4661-af30-a6d0a393b855_1024x.png","categoryName":"Trophy","categoryConfigurationType":"Regular","hasActiveConfigurations":false,"isActive":true,"isFeatured":false,"stock":100,"slug":"premier-glass-basketball"},{"id":47750,"name":"\"lowInventoryThreshold\": 0","description":"\"productOptions\": [\"Size\"]","price":0.00,"salePrice":null,"imageUrl":null,"categoryName":"Uncategorized","categoryConfigurationType":"Regular","hasActiveConfigurations":false,"isActive":true,"isFeatured":false,"stock":100,"slug":"lowinventorythreshold-0"},{"id":47751,"name":"Premier Glass Soccer Ball","description":"This \"Official-Size\" premier glass soccer ball is displayed on a solid marble base. A Great Team or Individual Award! The engraving plate is supplied and marked to acknowledge your top performers!","price":200.00,"salePrice":null,"imageUrl":"http://printoscar.com/wp-content/uploads/2024/12/GlassSoccer_f334cf80-3e58-4ccb-b504-3d6a9dbad1e9_1024x.png","categoryName":"Trophy","categoryConfigurationType":"Regular","hasActiveConfigurations":false,"isActive":true,"isFeatured":false,"stock":100,"slug":"premier-glass-soccer-ball"},{"id":47752,"name":"Baseball Glove Replica Sport Ball Award","description":"Baseball Glove - Gold Metallized Replica Sport Glove. This \"Official-Size\", 15-inch replica is displayed on a walnut base. A Great Team or Individual Award! The engraving plate is supplied and marked to acknowledge your top performers!","price":248.00,"salePrice":null,"imageUrl":"http://printoscar.com/wp-content/uploads/2024/12/ProductDetailImageGenerator_9a7fe65e-f883-420c-81d8-cdee3ebadeaa_1024x.png","categoryName":"Trophy","categoryConfigurationType":"Regular","hasActiveConfigurations":false,"isActive":true,"isFeatured":false,"stock":100,"slug":"baseball-glove-replica-sport-ball-award"},{"id":47753,"name":"Full Color Soccer Ball","description":"Replica Sport Full Color Soccer Ball. This Full Color enamel-finished \"Official-Size\" replica is displayed on a black marbleized base. A Great Team or Individual Award! Black and gold engraving plate supplied for engraved personalization.","price":163.00,"salePrice":null,"imageUrl":"http://printoscar.com/wp-content/uploads/2024/12/TBSB-0103_84297463-b1b1-435a-9bd7-2a1fe2aa0980_1024x.png","categoryName":"Trophy","categoryConfigurationType":"Regular","hasActiveConfigurations":false,"isActive":true,"isFeatured":false,"stock":100,"slug":"full-color-soccer-ball"},{"id":47754,"name":"Full Color Basketball","description":"Replica Sport Full Color Basketball. This Full Color enamel-finished \"Official-Size\" replica is displayed on a black marbleized base. A Great Team or Individual Award! Black and gold engraving plate supplied for engraved personalization.","price":163.00,"salePrice":null,"imageUrl":"http://printoscar.com/wp-content/uploads/2024/12/TBSB-0101_1024x.png","categoryName":"Trophy","categoryConfigurationType":"Regular","hasActiveConfigurations":false,"isActive":true,"isFeatured":false,"stock":100,"slug":"full-color-basketball"},{"id":47755,"name":"Diamond Series 1St Trophy With Exclusive Diamond Figure","description":"\\n\r\n\\n\r\n\\n\r\n\\n\r\n\\n\r\n\\n\r\n\\nCustomize a 2\" insert or use a stock 2\" mylar. The plate on the Italian marble base can be lettered.\r\n\\n\r\n\\n\r\n\\n\r\n\\n\r\n\\n\r\n\\n\r\n\\n\r\n\\n\r\n\\n\r\n\\nQuantity Based Discounts\r\n\\n\r\n\\n\r\n\\n\r\n\\nBuy quantity\r\n\\nDiscount\r\n\\n\r\n\\n\r\n\\n\r\n\\n\r\n\\nBuy 10 - 49\r\n\\nGet 5% off\r\n\\n\r\n\\n\r\n\\nBuy 50 - 99\r\n\\nGet 10% off\r\n\\n\r\n\\n\r\n\\nBuy 100 - 249\r\n\\nGet 15% off\r\n\\n\r\n\\n\r\n\\nBuy 250+\r\n\\nGet 20% off\r\n\\n\r\n\\n\r\n\\n\r\n\\n","price":0.00,"salePrice":null,"imageUrl":"http://printoscar.com/wp-content/uploads/2024/12/Diamond-Series-1St-Trophy-With-Exclusive-Diamond-Figure.png","categoryName":"Trophy","categoryConfigurationType":"Regular","hasActiveConfigurations":false,"isActive":true,"isFeatured":false,"stock":100,"slug":"diamond-series-1st-trophy-with-exclusive-diamond-figure"},{"id":47756,"name":"2nd place","description":"5K","price":0.00,"salePrice":2.00,"imageUrl":"Coach","categoryName":"Uncategorized","categoryConfigurationType":"Regular","hasActiveConfigurations":false,"isActive":true,"isFeatured":false,"stock":100,"slug":"2nd-place"},{"id":47757,"name":"Silver Basketball Sport Tower","description":"Silver Basketball ball sport tower. Sleek, modern look with a similar shape to the super bowl trophy. There is room on the column for a plate. Great for the champion of a sport leagues. 14 inches","price":68.00,"salePrice":null,"imageUrl":"http://printoscar.com/wp-content/uploads/2024/12/IMG_4009_f7b1c4b1-3965-4f2a-ac3d-9f1fd5fb218a_1024x.png","categoryName":"Trophy","categoryConfigurationType":"Regular","hasActiveConfigurations":false,"isActive":true,"isFeatured":false,"stock":100,"slug":"silver-basketball-sport-tower"},{"id":47758,"name":"Full Size Gold Resin Fantasy Football Award","description":"What better way to cap a victorious football season than hoisting this full football size gold fantasy football trophy over your head. Great as an individual award or as annual perpetual trophy. There is room on the base for lettering your league name and winners.","price":123.00,"salePrice":null,"imageUrl":"http://printoscar.com/wp-content/uploads/2024/12/ProductDetailImageGenerator_3_8096d80c-4398-4c1c-9845-1c68489a716a_1024x.jpg","categoryName":"Trophy","categoryConfigurationType":"Regular","hasActiveConfigurations":false,"isActive":true,"isFeatured":false,"stock":100,"slug":"full-size-gold-resin-fantasy-football-award"},{"id":47759,"name":"Silver Baseball Sport Tower","description":"Silver Baseball sport tower. Sleek, modern look with a similar shape to the super bowl trophy. There is room on the column for a plate. Great for the champion of a sport leagues. 14 inches","price":68.00,"salePrice":null,"imageUrl":"http://printoscar.com/wp-content/uploads/2024/12/IMG_4190_7d2f4b73-1340-4f88-b61a-498ca3d783bf_1024x.png","categoryName":"Trophy","categoryConfigurationType":"Regular","hasActiveConfigurations":false,"isActive":true,"isFeatured":false,"stock":100,"slug":"silver-baseball-sport-tower"},{"id":47760,"name":"Silver Soccer Sport Tower","description":"Silver Soccer sport tower. Sleek, modern look with a similar shape to the super bowl trophy. There is room on the column for a plate. Great for the champion of a sport leagues. 14 inches","price":68.00,"salePrice":null,"imageUrl":"http://printoscar.com/wp-content/uploads/2024/12/IMG_4005_87b6ab4d-5b3f-40a7-b2a1-92dc91d2b14a_1024x.png","categoryName":"Trophy","categoryConfigurationType":"Regular","hasActiveConfigurations":false,"isActive":true,"isFeatured":false,"stock":100,"slug":"silver-soccer-sport-tower"}],"totalCount":1955,"page":1,"pageSize":20,"totalPages":98,"hasNextPage":true,"hasPreviousPage":false},"priceRange":{"min":1.00,"max":1920.00}}
